{
    "3183601233":{
        "sessionAuthKey":"b2324a2d-5e08-44cc-8450-8c6e89ea2F7A",
        "sessionID":"D1F2AC75E91AFFEFCBF78C46C439B6BBD848B26FF2E53EEB404139D022EEC71B"
    },
    "veuxdu1229":{
        "sessionAuthKey":"c1390519-be81-406d-b855-24226b2a65ce",
        "sessionID":"09CE1245001273BD1BF2BAB125CCC69036B11E5C023A289254CF05C76F83C311"
    },
    "travis":{
        "sessionAuthKey":"434da211-0c2b-4006-ae0f-5129b787bd95",
        "sessionID":"7CDA6EBB12EB5014B8C53D79AD993F74B92FDB1C954388E4EF50826CF8E9A507"
    },
    "intg1226":{
        "sessionAuthKey":"b2324a2d-5e08-44cc-8450-8c6e89ea2873",
        "sessionID":"09CE1245001273BD1BF2BAB125CCC69036B11E5C023A289254CF05C76F83C311"
    },
    "test07":{
        "sessionAuthKey":"f08de439-ed4b-4788-953c-822935600e1d",
        "sessionID":"09CE1245001273BD1BF2BAB125CCC69036B11E5C023A289254CF05C76F83C311"
    },
    "veuxdu1228":{
        "sessionAuthKey":"63bb7e7f-adce-48e2-890d-ab4462d5e94e",
        "sessionID":"09CE1245001273BD1BF2BAB125CCC69036B11E5C023A289254CF05C76F83C311"
    },
    "test1644":{
        "sessionAuthKey":"ff68437f-6f68-4e4b-a943-cffc466103c9",
        "sessionID":"D1F2AC75E91AFFEFCBF78C46C439B6BBD848B26FF2E53EEB404139D022EEC71B"
    },
    "test01":{
        "sessionAuthKey":"501c47ed-295c-48b4-a665-d5634b2706fc",
        "sessionID":"7CDA6EBB12EB5014B8C53D79AD993F74B92FDB1C954388E4EF50826CF8E9A507"
    },
    "brian":{
        "sessionAuthKey":"b2324a2d-5e08-44cc-8450-8c6e89ea2974",
        "sessionID":"D1F2AC75E91AFFEFCBF78C46C439B6BBD848B26FF2E53EEB404139D022EEC71B"
    },
    "test1631":{
        "sessionAuthKey":"db646e8d-0a25-40f7-9d72-5f1113626e63",
        "sessionID":"D1F2AC75E91AFFEFCBF78C46C439B6BBD848B26FF2E53EEB404139D022EEC71B"
    },
    "test46":{
        "sessionAuthKey":"4fc3d929-1387-42f5-b452-19ce9beb50dc",
        "sessionID":"D1F2AC75E91AFFEFCBF78C46C439B6BBD848B26FF2E53EEB404139D022EEC71B"
    },
    "nathan":{
        "sessionAuthKey":"f8b73b34-fee5-4d29-b8d7-22c5d1eb65e5",
        "sessionID":"D1F2AC75E91AFFEFCBF78C46C439B6BBD848B26FF2E53EEB404139D022EEC71B"
    },
    "intg1225":{
        "sessionAuthKey":"b2324a2d-5e08-44cc-8450-8c6e89ea2772",
        "sessionID":"09CE1245001273BD1BF2BAB125CCC69036B11E5C023A289254CF05C76F83C311"
    },
    "skyline":{
        "sessionAuthKey":"b2324a2d-5e08-44cc-8450-8c6e89ea2A75",
        "sessionID":"09CE1245001273BD1BF2BAB125CCC69036B11E5C023A289254CF05C76F83C311"
    },
    "920000":{
        "sessionAuthKey":"b2324a2d-5e08-44cc-8450-8c6e89ea2671",
        "sessionID":"D1F2AC75E91AFFEFCBF78C46C439B6BBD848B26FF2E53EEB404139D022EEC71B"
    },
    "michigan":{
        "sessionAuthKey":"b2324a2d-5e08-44cc-8450-8c6e89ea2B76",
        "sessionID":"09CE1245001273BD1BF2BAB125CCC69036B11E5C023A289254CF05C76F83C311"
    },
    "test1630":{
        "sessionAuthKey":"8efa89ec-0eb3-47c9-b564-c5e018746271",
        "sessionID":"09CE1245001273BD1BF2BAB125CCC69036B11E5C023A289254CF05C76F83C311"
    },
    "3183601231":{
        "sessionAuthKey":"b2324a2d-5e08-44cc-8450-8c6e89ea2D78",
        "sessionID":"7CDA6EBB12EB5014B8C53D79AD993F74B92FDB1C954388E4EF50826CF8E9A507"
    },
    "920001":{
        "sessionAuthKey":"57e6fb53-3c5d-4ed9-8bb4-12a4bcba6e55",
        "sessionID":"7CDA6EBB12EB5014B8C53D79AD993F74B92FDB1C954388E4EF50826CF8E9A507"
    },
    "3183601235":{
        "sessionAuthKey":"b2324a2d-5e08-44cc-8450-8c6e89ea317C",
        "sessionID":"7CDA6EBB12EB5014B8C53D79AD993F74B92FDB1C954388E4EF50826CF8E9A507"
    },
    "3183601234":{
        "sessionAuthKey":"b2324a2d-5e08-44cc-8450-8c6e89ea307B",
        "sessionID":"7CDA6EBB12EB5014B8C53D79AD993F74B92FDB1C954388E4EF50826CF8E9A507"
    },
    "3183601232":{
        "sessionAuthKey":"b2324a2d-5e08-44cc-8450-8c6e89ea2E79",
        "sessionID":"7CDA6EBB12EB5014B8C53D79AD993F74B92FDB1C954388E4EF50826CF8E9A507"
    },
    "3183601230":{
        "sessionAuthKey":"b2324a2d-5e08-44cc-8450-8c6e89ea2C77",
        "sessionID":"09CE1245001273BD1BF2BAB125CCC69036B11E5C023A289254CF05C76F83C311"
    },
    "test1640":{
        "sessionAuthKey":"1124da16-f8ea-4e40-ae95-9b1f5a7494de",
        "sessionID":"7CDA6EBB12EB5014B8C53D79AD993F74B92FDB1C954388E4EF50826CF8E9A507"
    },
    "3183601236":{
        "sessionAuthKey":"b2324a2d-5e08-44cc-8450-8c6e89ea327D",
        "sessionID":"09CE1245001273BD1BF2BAB125CCC69036B11E5C023A289254CF05C76F83C311"
    },
    "test1632":{
        "sessionAuthKey":"23124dd1-a5fa-416b-a61b-2ed7d26fdc4c",
        "sessionID":"7CDA6EBB12EB5014B8C53D79AD993F74B92FDB1C954388E4EF50826CF8E9A507"
    },
    "lou":{
        "sessionAuthKey":"64bf5e7a-467e-4b35-82e5-f1e25f4495a6",
        "sessionID":"D1F2AC75E91AFFEFCBF78C46C439B6BBD848B26FF2E53EEB404139D022EEC71B"
    },
    "prasanth":{
        "sessionAuthKey":"123dbff4-2793-4618-b6c0-4ae9c6435c36",
        "sessionID":"7CDA6EBB12EB5014B8C53D79AD993F74B92FDB1C954388E4EF50826CF8E9A507"
    }
}