<?xml version="1.0" encoding="utf-8"?>
<!-- Generator: Adobe Illustrator 15.1.0, SVG Export Plug-In . SVG Version: 6.00 Build 0)  -->
<!DOCTYPE svg PUBLIC "-//W3C//DTD SVG 1.1//EN" "http://www.w3.org/Graphics/SVG/1.1/DTD/svg11.dtd">
<svg version="1.1" id="Шар_1" xmlns="http://www.w3.org/2000/svg" xmlns:xlink="http://www.w3.org/1999/xlink" x="0px" y="0px"
	 width="129px" height="35px" viewBox="0 0 129 35" enable-background="new 0 0 129 35" xml:space="preserve">
<path fill="#FFFFFF" d="M34.482,15.827c-0.181-2.023-0.71-3.95-1.528-5.714l-9.897,5.714H34.482z M0,18.667
	c0.182,2.025,0.71,3.948,1.528,5.712l9.899-5.712H0z M1.528,10.029C0.71,11.794,0.182,13.721,0,15.744h11.427L1.528,10.029z
	 M32.955,24.379c0.817-1.764,1.347-3.687,1.528-5.712H23.057L32.955,24.379z M15.864,0c-2.025,0.179-3.949,0.709-5.714,1.528
	l5.714,9.896V0z M18.785,34.481c2.025-0.182,3.949-0.712,5.713-1.53l-5.713-9.897V34.481z M3.088,27.21
	c1.145,1.622,2.562,3.038,4.183,4.184l5.713-9.897L3.088,27.21z M7.271,3.087C5.65,4.23,4.233,5.649,3.088,7.27l9.896,5.713
	L7.271,3.087z M18.793,0v11.424l5.714-9.896C22.743,0.709,20.819,0.18,18.793,0z M15.87,34.481V23.054l-5.714,9.897
	C11.921,33.77,13.845,34.3,15.87,34.481z M31.395,7.27c-1.144-1.62-2.56-3.039-4.182-4.183l-5.714,9.896L31.395,7.27z
	 M27.212,31.394c1.622-1.146,3.039-2.562,4.182-4.184l-9.896-5.714L27.212,31.394z"/>
<path fill="#FFFFFF" d="M44.459,17.451c1.229,0,2.232-0.289,3.008-0.867s1.177-1.336,1.203-2.273h-1.547
	c-0.073,0.591-0.338,1.054-0.797,1.389c-0.458,0.334-1.052,0.502-1.781,0.502c-1.099,0-1.952-0.401-2.559-1.204
	s-0.91-1.937-0.91-3.401c0-1.376,0.309-2.442,0.926-3.198s1.488-1.134,2.613-1.134c0.75,0,1.355,0.172,1.816,0.516
	s0.691,0.794,0.691,1.352h1.547c0-0.958-0.38-1.721-1.141-2.289c-0.76-0.567-1.784-0.852-3.07-0.852
	c-1.537,0-2.742,0.513-3.617,1.539c-0.875,1.026-1.313,2.44-1.313,4.242c0,1.771,0.438,3.16,1.313,4.168
	S42.922,17.451,44.459,17.451z"/>
<path fill="#FFFFFF" d="M56.474,16.764c0.56-0.458,0.895-1.122,1.004-1.992h-1.461c-0.063,0.505-0.259,0.901-0.59,1.188
	c-0.331,0.287-0.754,0.43-1.27,0.43c-0.729,0-1.263-0.258-1.602-0.773c-0.297-0.453-0.464-1.117-0.5-1.992h5.477l0.016-0.516
	c0-1.229-0.287-2.165-0.859-2.809c-0.573-0.643-1.404-0.965-2.492-0.965c-1.125,0-2.009,0.371-2.652,1.113
	c-0.644,0.742-0.965,1.765-0.965,3.066c0,1.229,0.32,2.193,0.961,2.891c0.641,0.698,1.526,1.047,2.656,1.047
	C55.155,17.451,55.914,17.222,56.474,16.764z M52.572,11.123c0.359-0.484,0.862-0.727,1.508-0.727c0.745,0,1.271,0.208,1.578,0.625
	c0.245,0.328,0.391,0.844,0.438,1.547h-4.023C52.134,11.97,52.301,11.488,52.572,11.123z"/>
<path fill="#FFFFFF" d="M64.621,10.967c0.297,0.354,0.445,0.925,0.445,1.711v4.555h0.711h0.703v-4.578
	c0-1.141-0.236-1.979-0.711-2.516c-0.473-0.536-1.215-0.805-2.226-0.805c-0.99,0-1.776,0.326-2.359,0.977
	c-0.089,0.094-0.169,0.195-0.242,0.305V9.553h-0.656H59.63v7.68h0.711h0.703v-4.344c0-0.859,0.17-1.483,0.512-1.871
	c0.341-0.388,0.889-0.582,1.645-0.582C63.851,10.436,64.325,10.613,64.621,10.967z"/>
<path fill="#FFFFFF" d="M73.016,16.287c-0.313,0.063-0.656,0.097-1.031,0.102c-0.297,0-0.512-0.061-0.648-0.184
	c-0.135-0.122-0.203-0.319-0.203-0.59v-5.039h1.883V9.553h-1.883V7.584L69.719,8.17v1.383h-1.594v1.023h1.594v5.367
	c0,0.422,0.186,0.779,0.555,1.07c0.371,0.292,0.82,0.438,1.352,0.438c0.527,0,0.99-0.036,1.391-0.109V16.287z"/>
<path fill="#FFFFFF" d="M80.434,16.232v1h0.656h0.656v-7.68h-0.711h-0.703v4.347c0.041,0.869-0.107,1.501-0.449,1.896
	c-0.342,0.395-0.908,0.593-1.699,0.593c-0.65,0-1.125-0.177-1.422-0.531c-0.297-0.354-0.445-0.923-0.445-1.709V9.553h-0.711h-0.703
	v4.496c0,1.17,0.244,2.031,0.73,2.58s1.248,0.823,2.285,0.823c0.979,0,1.766-0.339,2.359-1.017L80.434,16.232z"/>
<path fill="#FFFFFF" d="M88.211,10.67V9.35l-0.383-0.016c-0.881-0.005-1.598,0.328-2.148,1V9.553h-0.711h-0.703v7.68h0.711h0.703
	v-3.906c0-0.932,0.176-1.61,0.531-2.035c0.354-0.424,0.924-0.637,1.711-0.637L88.211,10.67z"/>
<polygon fill="#FFFFFF" points="96.465,9.553 95.717,9.553 93.375,15.636 90.902,9.553 90.137,9.553 89.377,9.553 92.623,17.264 
	92.623,17.271 91.449,20.068 92.16,20.068 92.869,20.068 97.213,9.553 "/>
<polygon fill="#FFFFFF" points="105.967,16.607 105.967,15.982 100.764,15.982 100.764,6.209 100.006,6.209 99.256,6.209 
	99.256,17.232 105.967,17.232 "/>
<rect x="107.689" y="6.209" fill="#FFFFFF" width="1.555" height="1.445"/>
<polygon fill="#FFFFFF" points="107.76,9.553 107.76,17.232 108.471,17.232 109.174,17.232 109.174,9.553 108.463,9.553 "/>
<path fill="#FFFFFF" d="M115.6,9.334c-0.99,0-1.777,0.326-2.359,0.977c-0.09,0.094-0.17,0.195-0.242,0.305V9.553h-0.656h-0.656v7.68
	h0.711h0.703v-4.344c0-0.859,0.17-1.483,0.512-1.871c0.34-0.388,0.889-0.582,1.645-0.582c0.65,0,1.125,0.177,1.422,0.531
	c0.297,0.354,0.445,0.925,0.445,1.711v4.555h0.711h0.703v-4.578c0-1.141-0.238-1.979-0.711-2.516
	C117.352,9.603,116.609,9.334,115.6,9.334z"/>
<polygon fill="#FFFFFF" points="124.148,12.795 127.453,9.553 126.557,9.553 125.668,9.553 122.648,12.74 122.648,6.209 
	121.938,6.209 121.234,6.209 121.234,17.232 121.945,17.232 122.648,17.232 122.648,13.008 126.092,17.232 127.041,17.232 
	127.992,17.232 "/>
<path fill="#FFFFFF" d="M50.222,23.817c-0.838,0-1.491,0.245-1.958,0.736c-0.467,0.49-0.701,1.176-0.701,2.057
	c0,0.877,0.233,1.561,0.701,2.049c0.467,0.489,1.12,0.733,1.958,0.733c0.841,0,1.495-0.244,1.96-0.733
	c0.465-0.488,0.698-1.172,0.698-2.049c0-0.881-0.233-1.566-0.698-2.057C51.717,24.063,51.063,23.817,50.222,23.817z M51.138,27.982
	c-0.209,0.313-0.515,0.47-0.916,0.47c-0.423,0-0.733-0.148-0.932-0.445s-0.298-0.763-0.298-1.396c0-0.605,0.104-1.065,0.314-1.381
	c0.209-0.314,0.515-0.473,0.916-0.473c0.404,0,0.71,0.156,0.918,0.468c0.208,0.312,0.312,0.773,0.312,1.386
	C51.452,27.212,51.347,27.669,51.138,27.982z"/>
<path fill="#FFFFFF" d="M60.545,23.817c-0.635,0-1.11,0.202-1.426,0.607c-0.086,0.11-0.16,0.236-0.221,0.375
	c-0.082-0.215-0.229-0.404-0.439-0.568c-0.347-0.276-0.771-0.414-1.271-0.414c-0.621,0-1.086,0.202-1.394,0.607
	c-0.079,0.104-0.15,0.224-0.215,0.359v-0.816h-0.72h-0.714v5.274h0.72h0.714v-2.981c0-0.458,0.098-0.822,0.292-1.093
	c0.195-0.271,0.457-0.405,0.785-0.405c0.264,0,0.478,0.098,0.64,0.293c0.163,0.195,0.244,0.452,0.244,0.771v3.416h0.72h0.714v-2.981
	c0-0.458,0.097-0.822,0.291-1.093s0.456-0.405,0.786-0.405c0.266,0,0.479,0.097,0.641,0.29c0.162,0.193,0.243,0.449,0.243,0.769
	v3.421h0.72h0.714v-3.368c0-0.688-0.151-1.202-0.454-1.544S61.154,23.817,60.545,23.817z"/>
<path fill="#FFFFFF" d="M70.179,23.817c-0.635,0-1.111,0.202-1.426,0.607c-0.086,0.11-0.16,0.236-0.221,0.375
	c-0.082-0.215-0.229-0.404-0.439-0.568c-0.348-0.276-0.771-0.414-1.271-0.414c-0.624,0-1.087,0.202-1.395,0.607
	c-0.079,0.104-0.15,0.224-0.215,0.359v-0.816h-0.72h-0.715v5.274h0.721h0.714v-2.981c0-0.458,0.097-0.822,0.292-1.093
	c0.193-0.271,0.455-0.405,0.785-0.405c0.265,0,0.478,0.098,0.64,0.293s0.244,0.452,0.244,0.771v3.416h0.721h0.713v-2.981
	c0-0.458,0.098-0.822,0.291-1.093s0.457-0.405,0.787-0.405c0.266,0,0.479,0.097,0.641,0.29s0.242,0.449,0.242,0.769v3.421h0.721
	h0.713v-3.368c0-0.688-0.15-1.202-0.453-1.544C71.243,23.988,70.788,23.817,70.179,23.817z"/>
<path fill="#FFFFFF" d="M76.919,23.968v2.98c0,0.459-0.105,0.823-0.316,1.094c-0.213,0.271-0.498,0.405-0.859,0.405
	c-0.291,0-0.523-0.127-0.699-0.382c-0.176-0.254-0.264-0.589-0.264-1.004v-3.094h-0.709h-0.709v3.223
	c0,0.734,0.162,1.284,0.486,1.651s0.813,0.551,1.465,0.551c0.619,0,1.111-0.22,1.477-0.661c0.09-0.107,0.166-0.222,0.23-0.344v0.854
	h0.666h0.666v-5.274h-0.719H76.919z"/>
<path fill="#FFFFFF" d="M82.882,23.817c-0.65,0-1.139,0.202-1.461,0.607c-0.088,0.114-0.168,0.241-0.236,0.381v-0.838h-0.709h-0.709
	v5.274h0.709h0.709v-2.981c0-0.508,0.096-0.885,0.289-1.13c0.191-0.245,0.486-0.368,0.889-0.368c0.289,0,0.521,0.105,0.697,0.316
	c0.176,0.212,0.264,0.491,0.264,0.838v3.325h0.719h0.715v-3.309c0-0.705-0.156-1.234-0.467-1.587
	C83.978,23.994,83.509,23.817,82.882,23.817z"/>
<rect x="86.054" y="21.675" fill="#FFFFFF" width="1.559" height="1.401"/>
<polygon fill="#FFFFFF" points="86.118,23.968 86.118,29.242 86.839,29.242 87.552,29.242 87.552,23.968 86.833,23.968 "/>
<path fill="#FFFFFF" d="M91.347,24.757c0.293,0,0.521,0.091,0.686,0.271c0.162,0.181,0.244,0.435,0.244,0.76h1.428
	c-0.031-0.662-0.234-1.156-0.605-1.482c-0.373-0.325-0.924-0.488-1.65-0.488c-0.834,0-1.484,0.245-1.949,0.736
	c-0.465,0.49-0.697,1.176-0.697,2.057c0,0.877,0.223,1.561,0.67,2.049c0.447,0.489,1.072,0.733,1.875,0.733
	c0.744,0,1.324-0.18,1.738-0.54c0.412-0.359,0.619-0.863,0.619-1.512h-1.428c0.027,0.351-0.039,0.624-0.201,0.819
	c-0.164,0.195-0.406,0.292-0.729,0.292c-0.369,0-0.646-0.154-0.834-0.464c-0.189-0.31-0.283-0.77-0.283-1.378
	c0-0.605,0.096-1.065,0.285-1.381C90.704,24.915,90.981,24.757,91.347,24.757z"/>
<path fill="#FFFFFF" d="M99.503,27.728v-1.901c0-0.67-0.199-1.172-0.6-1.507c-0.398-0.335-0.996-0.502-1.791-0.502
	c-0.713,0-1.252,0.135-1.617,0.405s-0.561,0.68-0.584,1.228h1.434c0-0.243,0.063-0.421,0.189-0.531
	c0.127-0.111,0.332-0.167,0.611-0.167c0.318,0,0.553,0.07,0.701,0.212c0.15,0.142,0.225,0.364,0.225,0.669l-0.002,0.241h-0.678
	c-0.898,0-1.572,0.158-2.021,0.473c-0.449,0.315-0.674,0.788-0.674,1.418c0,0.516,0.16,0.916,0.486,1.201
	c0.324,0.284,0.775,0.427,1.355,0.427c0.613,0,1.104-0.197,1.473-0.591l0.156-0.188l0.117,0.628h1.348
	c-0.039-0.082-0.07-0.256-0.094-0.521C99.515,28.456,99.503,28.125,99.503,27.728z M98.073,27.115
	c-0.029,0.455-0.133,0.791-0.311,1.01s-0.438,0.327-0.777,0.327c-0.277,0-0.492-0.065-0.646-0.198
	c-0.156-0.133-0.232-0.318-0.232-0.559c0-0.318,0.139-0.565,0.414-0.741c0.277-0.176,0.664-0.264,1.16-0.264h0.393V27.115z"/>
<path fill="#FFFFFF" d="M102.835,22.47l-1.434,0.709v0.789h-0.957v0.935h0.957v2.9c0,0.563,0.115,0.968,0.348,1.217
	c0.234,0.249,0.611,0.373,1.135,0.373c0.391,0,0.736-0.032,1.041-0.097v-0.908c-0.133,0.043-0.26,0.066-0.381,0.07
	c-0.266,0-0.449-0.066-0.553-0.199c-0.104-0.132-0.156-0.366-0.156-0.703v-2.653h1.09v-0.935h-1.09V22.47z"/>
<path fill="#FFFFFF" d="M107.505,23.817c-0.838,0-1.49,0.245-1.957,0.736c-0.469,0.49-0.701,1.176-0.701,2.057
	c0,0.877,0.232,1.561,0.701,2.049c0.467,0.489,1.119,0.733,1.957,0.733c0.842,0,1.494-0.244,1.961-0.733
	c0.465-0.488,0.697-1.172,0.697-2.049c0-0.881-0.232-1.566-0.697-2.057C108.999,24.063,108.347,23.817,107.505,23.817z
	 M108.421,27.982c-0.209,0.313-0.516,0.47-0.916,0.47c-0.422,0-0.732-0.148-0.932-0.445s-0.299-0.763-0.299-1.396
	c0-0.605,0.105-1.065,0.314-1.381c0.209-0.314,0.516-0.473,0.916-0.473c0.404,0,0.711,0.156,0.918,0.468s0.313,0.773,0.313,1.386
	C108.735,27.212,108.63,27.669,108.421,27.982z"/>
<path fill="#FFFFFF" d="M112.964,24.569l-0.16,0.273v-0.875h-0.699h-0.693v5.274h0.721h0.715v-2.681c0-0.43,0.129-0.771,0.389-1.022
	c0.26-0.253,0.611-0.379,1.055-0.379h0.064v-1.343h-0.025C113.749,23.817,113.294,24.068,112.964,24.569z"/>
<path fill="#FFFFFF" d="M46.547,26.765c0.035,0.751-0.243,1.381-0.833,1.891s-1.335,0.765-2.236,0.765
	c-1.082,0-1.905-0.334-2.469-1.004c-0.563-0.67-0.845-1.649-0.845-2.938s0.291-2.27,0.872-2.941
	c0.581-0.671,1.428-1.007,2.542-1.007c0.862,0,1.574,0.247,2.136,0.743c0.538,0.471,0.805,1.045,0.801,1.724v0.113h-1.503
	c-0.039-0.445-0.193-0.791-0.463-1.037s-0.627-0.369-1.071-0.369c-0.59,0-1.039,0.236-1.348,0.709
	c-0.309,0.472-0.463,1.16-0.463,2.065s0.158,1.593,0.474,2.063c0.316,0.471,0.774,0.706,1.374,0.706c0.461,0,0.826-0.13,1.094-0.391
	c0.269-0.26,0.414-0.624,0.435-1.091H46.547z"/>
</svg>
