{"Artifacts": {
    "Message": [
        {
            "@id": "3582821",
            "@type": "SMS",
            "ContactReference": [
                {
                    "ContactId": "-1",
                    "ContactName": "J. Scott Landers",
                    "ContactNumber": "JScottLanders@jaybirdgroup.com",
                    "ContactRole": {
                        "@desc": "SentBy",
                        "@id": "4"
                    },
                    "ContactType": {
                        "@desc": "Person",
                        "@id": "3"
                    },
                    "FromType": "Web"
                },
                {
                    "ContactId": "-1",
                    "ContactNumber": "7202839243",
                    "ContactRole": {
                        "@desc": "SentTo",
                        "@id": "3"
                    },
                    "ContactType": {
                        "@desc": "Person",
                        "@id": "3"
                    }
                }
            ],
            "CreateDate": "2014-03-03T18:58:18-07:00",
            "Description": "Test Reply from my mailbox",
            "LastUpdateDate": "2014-03-03T18:58:18-07:00",
            "Version": "1",
            "MessageDate": "2014-03-03T18:58:18-07:00",
            "MessageDirection": "O",
            "ResponseStatus": "success",
            "responseStatusCode": "202",
            "Subject": "Email Test"
        },
        {
            "@id": "3582819",
            "@type": "VoiceMail",
            "ArtifactReference": {
                "ArtifactId": "2996",
                "ArtifactType": {
                    "@desc": "Audio",
                    "@id": "7"
                }
            },
            "ContactReference": [
                {
                    "ContactId": "-1",
                    "ContactNumber": "7202839243",
                    "ContactRole": {
                        "@desc": "SentBy",
                        "@id": "4"
                    },
                    "ContactType": {
                        "@desc": "Person",
                        "@id": "3"
                    },
                    "FromType": "Web"
                },
                {
                    "ContactId": "-1",
                    "ContactNumber": "7202839243",
                    "ContactRole": {
                        "@desc": "SentTo",
                        "@id": "3"
                    },
                    "ContactType": {
                        "@desc": "Person",
                        "@id": "3"
                    }
                }
            ],
            "CreateDate": "2014-03-03T18:06:58-07:00",
            "Description": "VOICEMAIL",
            "LastUpdateDate": "2014-03-03T18:06:58-07:00",
            "Version": "1",
            "MessageDate": "2014-03-03T18:06:58-07:00",
            "ResponseStatus": "success",
            "responseStatusCode": "202",
            "Size": "18.0",
            "SizeUnit": "SEC"
        },
        {
            "@id": "3582818",
            "@type": "SMS",
            "ContactReference": [
                {
                    "ContactId": "-1",
                    "ContactNumber": "7202839243",
                    "ContactRole": {
                        "@desc": "SentBy",
                        "@id": "4"
                    },
                    "ContactType": {
                        "@desc": "Person",
                        "@id": "3"
                    },
                    "FromType": "Web"
                },
                {
                    "ContactId": "-1",
                    "ContactNumber": "7202839243",
                    "ContactRole": {
                        "@desc": "SentTo",
                        "@id": "3"
                    },
                    "ContactType": {
                        "@desc": "Person",
                        "@id": "3"
                    }
                }
            ],
            "CreateDate": "2014-03-03T17:35:16-07:00",
            "Description": "test 66",
            "LastUpdateDate": "2014-03-03T17:35:16-07:00",
            "Version": "1",
            "MessageDate": "2014-03-03T17:35:16-07:00",
            "ResponseStatus": "success",
            "responseStatusCode": "202",
            "Subject": "test 66"
        },
        {
            "@id": "3581009",
            "@type": "SMS",
            "ContactReference": [
                {
                    "ContactId": "-1",
                    "ContactNumber": "7202839243",
                    "ContactRole": {
                        "@desc": "SentBy",
                        "@id": "4"
                    },
                    "ContactType": {
                        "@desc": "Person",
                        "@id": "3"
                    },
                    "FromType": "Web"
                },
                {
                    "ContactId": "14003559",
                    "ContactNumber": "andrew@ego-cms.com",
                    "ContactRole": {
                        "@desc": "SentTo",
                        "@id": "3"
                    },
                    "ContactType": {
                        "@desc": "Person",
                        "@id": "3"
                    }
                }
            ],
            "CreateDate": "2014-02-17T19:47:37-07:00",
            "Description": "hh",
            "LastUpdateDate": "2014-02-17T19:47:37-07:00",
            "Version": "1",
            "MessageDate": "2014-02-17T19:47:37-07:00",
            "MessageDirection": "O",
            "ResponseStatus": "success",
            "responseStatusCode": "202",
            "Size": "2.0",
            "SizeUnit": "CHAR",
            "Subject": "Re:"
        },
        {
            "@id": "3581008",
            "@type": "SMS",
            "ContactReference": [
                {
                    "ContactId": "-1",
                    "ContactNumber": "7202839243",
                    "ContactRole": {
                        "@desc": "SentBy",
                        "@id": "4"
                    },
                    "ContactType": {
                        "@desc": "Person",
                        "@id": "3"
                    },
                    "FromType": "Web"
                },
                {
                    "ContactId": "14003559",
                    "ContactNumber": "andrew@ego-cms.com",
                    "ContactRole": {
                        "@desc": "SentTo",
                        "@id": "3"
                    },
                    "ContactType": {
                        "@desc": "Person",
                        "@id": "3"
                    }
                }
            ],
            "CreateDate": "2014-02-17T19:46:58-07:00",
            "Description": "test",
            "LastUpdateDate": "2014-02-17T19:46:58-07:00",
            "Version": "1",
            "MessageDate": "2014-02-17T19:46:58-07:00",
            "MessageDirection": "O",
            "ResponseStatus": "success",
            "responseStatusCode": "202",
            "Size": "4.0",
            "SizeUnit": "CHAR",
            "Subject": "test"
        },
        {
            "@id": "3581004",
            "@type": "SMS",
            "ContactReference": [
                {
                    "ContactId": "-1",
                    "ContactNumber": "7202839243",
                    "ContactRole": {
                        "@desc": "SentBy",
                        "@id": "4"
                    },
                    "ContactType": {
                        "@desc": "Person",
                        "@id": "3"
                    },
                    "FromType": "Web"
                },
                {
                    "ContactId": "14003912",
                    "ContactNumber": "James@q.com",
                    "ContactRole": {
                        "@desc": "SentTo",
                        "@id": "3"
                    },
                    "ContactType": {
                        "@desc": "Person",
                        "@id": "3"
                    }
                }
            ],
            "CreateDate": "2014-02-17T19:31:39-07:00",
            "Description": "test",
            "LastUpdateDate": "2014-02-17T19:31:39-07:00",
            "Version": "1",
            "MessageDate": "2014-02-17T19:31:39-07:00",
            "MessageDirection": "O",
            "ResponseStatus": "success",
            "responseStatusCode": "202",
            "Size": "4.0",
            "SizeUnit": "CHAR",
            "Subject": "test"
        },
        {
            "@id": "3580948",
            "@type": "SMS",
            "ContactReference": [
                {
                    "ContactId": "-1",
                    "ContactNumber": "7202839243",
                    "ContactRole": {
                        "@desc": "SentBy",
                        "@id": "4"
                    },
                    "ContactType": {
                        "@desc": "Person",
                        "@id": "3"
                    },
                    "FromType": "Web"
                },
                {
                    "ContactId": "3580555",
                    "ContactNumber": "7202839243",
                    "ContactRole": {
                        "@desc": "SentTo",
                        "@id": "3"
                    },
                    "ContactType": {
                        "@desc": "Person",
                        "@id": "3"
                    }
                }
            ],
            "CreateDate": "2014-02-17T06:55:46-07:00",
            "Description": "Body for test message 4",
            "LastUpdateDate": "2014-02-17T06:55:46-07:00",
            "Version": "1",
            "MessageDate": "2014-02-17T06:55:46-07:00",
            "MessageDirection": "O",
            "ResponseStatus": "success",
            "responseStatusCode": "202",
            "Size": "23.0",
            "SizeUnit": "CHAR",
            "Subject": "Test message 4"
        },
        {
            "@id": "3580943",
            "@type": "SMS",
            "ContactReference": [
                {
                    "ContactId": "-1",
                    "ContactNumber": "7202839243",
                    "ContactRole": {
                        "@desc": "SentBy",
                        "@id": "4"
                    },
                    "ContactType": {
                        "@desc": "Person",
                        "@id": "3"
                    },
                    "FromType": "Web"
                },
                {
                    "ContactId": "14003907",
                    "ContactNumber": "peter@ego-cms.com",
                    "ContactRole": {
                        "@desc": "SentTo",
                        "@id": "3"
                    },
                    "ContactType": {
                        "@desc": "Person",
                        "@id": "3"
                    }
                }
            ],
            "CreateDate": "2014-02-17T04:45:25-07:00",
            "Description": "sdfsdfsdfsdf",
            "LastUpdateDate": "2014-02-17T04:45:25-07:00",
            "Version": "1",
            "MessageDate": "2014-02-17T04:45:25-07:00",
            "MessageDirection": "O",
            "ResponseStatus": "success",
            "responseStatusCode": "202",
            "Size": "12.0",
            "SizeUnit": "CHAR",
            "Subject": "Test subject"
        },
        {
            "@id": "3580935",
            "@type": "SMS",
            "ContactReference": [
                {
                    "ContactId": "-1",
                    "ContactNumber": "7202839243",
                    "ContactRole": {
                        "@desc": "SentTo",
                        "@id": "3"
                    },
                    "ContactType": {
                        "@desc": "Group",
                        "@id": "2"
                    }
                },
                {
                    "ContactId": "-1",
                    "ContactNumber": "7202839243",
                    "ContactRole": {
                        "@desc": "SentTo",
                        "@id": "3"
                    },
                    "ContactType": {
                        "@desc": "Group",
                        "@id": "2"
                    }
                },
                {
                    "ContactId": "-1",
                    "ContactNumber": "7202839243",
                    "ContactRole": {
                        "@desc": "SentBy",
                        "@id": "4"
                    },
                    "ContactType": {
                        "@desc": "Person",
                        "@id": "3"
                    },
                    "FromType": "Web"
                }
            ],
            "CreateDate": "2014-02-17T03:04:45-07:00",
            "Description": "Test reply",
            "LastUpdateDate": "2014-02-17T03:04:45-07:00",
            "Version": "1",
            "MessageDate": "2014-02-17T03:04:45-07:00",
            "MessageDirection": "O",
            "ResponseStatus": "success",
            "responseStatusCode": "202",
            "Size": "10.0",
            "SizeUnit": "CHAR",
            "Subject": "Re: test with artifact and contact id"
        },
        {
            "@id": "3580934",
            "@type": "SMS",
            "ContactReference": [
                {
                    "ContactId": "-1",
                    "ContactNumber": "7202839243",
                    "ContactRole": {
                        "@desc": "SentBy",
                        "@id": "4"
                    },
                    "ContactType": {
                        "@desc": "Person",
                        "@id": "3"
                    },
                    "FromType": "Web"
                },
                {
                    "ContactId": "14003559",
                    "ContactNumber": "andrew@ego-cms.com",
                    "ContactRole": {
                        "@desc": "SentTo",
                        "@id": "3"
                    },
                    "ContactType": {
                        "@desc": "Person",
                        "@id": "3"
                    }
                }
            ],
            "CreateDate": "2014-02-17T03:03:14-07:00",
            "Description": "Body for test message 3",
            "LastUpdateDate": "2014-02-17T03:03:14-07:00",
            "Version": "1",
            "MessageDate": "2014-02-17T03:03:14-07:00",
            "MessageDirection": "O",
            "ResponseStatus": "success",
            "responseStatusCode": "202",
            "Size": "23.0",
            "SizeUnit": "CHAR",
            "Subject": "Test message 3"
        },
        {
            "@id": "3580926",
            "@type": "SMS",
            "ContactReference": [
                {
                    "ContactId": "-1",
                    "ContactNumber": "7202839243",
                    "ContactRole": {
                        "@desc": "SentBy",
                        "@id": "4"
                    },
                    "ContactType": {
                        "@desc": "Person",
                        "@id": "3"
                    },
                    "FromType": "Web"
                },
                {
                    "ContactId": "14003559",
                    "ContactNumber": "andrew@ego-cms.com",
                    "ContactRole": {
                        "@desc": "SentTo",
                        "@id": "3"
                    },
                    "ContactType": {
                        "@desc": "Person",
                        "@id": "3"
                    }
                }
            ],
            "CreateDate": "2014-02-17T02:20:02-07:00",
            "Description": "Body for test message 1",
            "LastUpdateDate": "2014-02-17T02:20:02-07:00",
            "Version": "1",
            "MessageDate": "2014-02-17T02:20:02-07:00",
            "MessageDirection": "O",
            "ResponseStatus": "success",
            "responseStatusCode": "202",
            "Size": "23.0",
            "SizeUnit": "CHAR",
            "Subject": "Test message 1"
        },
        {
            "@id": "3580593",
            "@type": "SMS",
            "ContactReference": [
                {
                    "ContactId": "-1",
                    "ContactNumber": "7202839243",
                    "ContactRole": {
                        "@desc": "SentBy",
                        "@id": "4"
                    },
                    "ContactType": {
                        "@desc": "Person",
                        "@id": "3"
                    },
                    "FromType": "Web"
                },
                {
                    "ContactId": "14003907",
                    "ContactNumber": "peter@ego-cms.com",
                    "ContactRole": {
                        "@desc": "SentTo",
                        "@id": "3"
                    },
                    "ContactType": {
                        "@desc": "Person",
                        "@id": "3"
                    }
                }
            ],
            "CreateDate": "2014-02-14T09:41:31-07:00",
            "Description": "dsdsdsds",
            "LastUpdateDate": "2014-02-14T09:41:31-07:00",
            "Version": "1",
            "MessageDate": "2014-02-14T09:41:31-07:00",
            "MessageDirection": "O",
            "ResponseStatus": "success",
            "responseStatusCode": "202",
            "Size": "8.0",
            "SizeUnit": "CHAR",
            "Subject": "Some subject"
        },
        {
            "@id": "3580592",
            "@type": "SMS",
            "ContactReference": [
                {
                    "ContactId": "-1",
                    "ContactNumber": "7202839243",
                    "ContactRole": {
                        "@desc": "SentBy",
                        "@id": "4"
                    },
                    "ContactType": {
                        "@desc": "Person",
                        "@id": "3"
                    },
                    "FromType": "Web"
                },
                {
                    "ContactId": "14003907",
                    "ContactNumber": "peter@ego-cms.com",
                    "ContactRole": {
                        "@desc": "SentTo",
                        "@id": "3"
                    },
                    "ContactType": {
                        "@desc": "Person",
                        "@id": "3"
                    }
                }
            ],
            "CreateDate": "2014-02-14T09:35:11-07:00",
            "Description": "lghfgflhgsefhjgkdlfjhg",
            "LastUpdateDate": "2014-02-14T09:35:11-07:00",
            "Version": "1",
            "MessageDate": "2014-02-14T09:35:11-07:00",
            "MessageDirection": "O",
            "ResponseStatus": "success",
            "responseStatusCode": "202",
            "Size": "22.0",
            "SizeUnit": "CHAR",
            "Subject": "Test subject"
        },
        {
            "@id": "3580591",
            "@type": "SMS",
            "ContactReference": [
                {
                    "ContactId": "-1",
                    "ContactNumber": "7202839243",
                    "ContactRole": {
                        "@desc": "SentBy",
                        "@id": "4"
                    },
                    "ContactType": {
                        "@desc": "Person",
                        "@id": "3"
                    },
                    "FromType": "Web"
                },
                {
                    "ContactId": "14003907",
                    "ContactNumber": "peter@ego-cms.com",
                    "ContactRole": {
                        "@desc": "SentTo",
                        "@id": "3"
                    },
                    "ContactType": {
                        "@desc": "Person",
                        "@id": "3"
                    }
                }
            ],
            "CreateDate": "2014-02-14T09:26:38-07:00",
            "Description": "Some text",
            "LastUpdateDate": "2014-02-14T09:26:38-07:00",
            "Version": "1",
            "MessageDate": "2014-02-14T09:26:38-07:00",
            "MessageDirection": "O",
            "ResponseStatus": "success",
            "responseStatusCode": "202",
            "Size": "9.0",
            "SizeUnit": "CHAR",
            "Subject": "Test subject"
        },
        {
            "@id": "3580558",
            "@type": "SMS",
            "ContactReference": [
                {
                    "ContactId": "-1",
                    "ContactNumber": "7202839243",
                    "ContactRole": {
                        "@desc": "SentBy",
                        "@id": "4"
                    },
                    "ContactType": {
                        "@desc": "Person",
                        "@id": "3"
                    },
                    "FromType": "Web"
                },
                {
                    "ContactId": "14003559",
                    "ContactNumber": "andrew@ego-cms.com",
                    "ContactRole": {
                        "@desc": "SentTo",
                        "@id": "3"
                    },
                    "ContactType": {
                        "@desc": "Person",
                        "@id": "3"
                    }
                }
            ],
            "CreateDate": "2014-02-14T04:16:29-07:00",
            "Description": "Test message 2",
            "LastUpdateDate": "2014-02-14T04:16:29-07:00",
            "Version": "1",
            "MessageDate": "2014-02-14T04:16:29-07:00",
            "MessageDirection": "O",
            "ResponseStatus": "success",
            "responseStatusCode": "202",
            "Size": "14.0",
            "SizeUnit": "CHAR",
            "Subject": "Test subject 2"
        },
        {
            "@id": "3580557",
            "@type": "SMS",
            "ContactReference": [
                {
                    "ContactId": "-1",
                    "ContactNumber": "7202839243",
                    "ContactRole": {
                        "@desc": "SentBy",
                        "@id": "4"
                    },
                    "ContactType": {
                        "@desc": "Person",
                        "@id": "3"
                    },
                    "FromType": "Web"
                },
                {
                    "ContactId": "14003559",
                    "ContactNumber": "andrew@ego-cms.com",
                    "ContactRole": {
                        "@desc": "SentTo",
                        "@id": "3"
                    },
                    "ContactType": {
                        "@desc": "Person",
                        "@id": "3"
                    }
                }
            ],
            "CreateDate": "2014-02-14T04:14:43-07:00",
            "Description": "Test message with text 1",
            "LastUpdateDate": "2014-02-14T04:14:43-07:00",
            "Version": "1",
            "MessageDate": "2014-02-14T04:14:43-07:00",
            "MessageDirection": "O",
            "ResponseStatus": "success",
            "responseStatusCode": "202",
            "Size": "24.0",
            "SizeUnit": "CHAR",
            "Subject": "Test subject 1"
        },
        {
            "@id": "3580094",
            "@type": "SMS",
            "ContactReference": [
                {
                    "ContactId": "7202839243",
                    "ContactNumber": "7202839243",
                    "ContactRole": {
                        "@desc": "SentBy",
                        "@id": "4"
                    },
                    "ContactType": {
                        "@desc": "Person",
                        "@id": "3"
                    },
                    "FromType": "Web"
                },
                {
                    "ContactId": "7202839243",
                    "ContactName": "Jaeger",
                    "ContactNumber": "7202839243",
                    "ContactRole": {
                        "@desc": "SentTo",
                        "@id": "3"
                    },
                    "ContactType": {
                        "@desc": "Person",
                        "@id": "3"
                    }
                }
            ],
            "CreateDate": "2014-01-14T06:55:29-07:00",
            "Description": "test with post artifact and contact id",
            "LastUpdateDate": "2014-01-14T06:55:29-07:00",
            "Version": "1",
            "MessageDate": "2014-01-14T06:55:29-07:00",
            "ResponseStatus": "success",
            "responseStatusCode": "202",
            "Subject": "test with artifact and contact id"
        },
        {
            "@id": "3580093",
            "@type": "SMS",
            "ContactReference": [
                {
                    "ContactId": "7202839243",
                    "ContactNumber": "7202839243",
                    "ContactRole": {
                        "@desc": "SentTo",
                        "@id": "3"
                    },
                    "ContactType": {
                        "@desc": "Person",
                        "@id": "3"
                    }
                },
                {
                    "ContactId": "7202839243",
                    "ContactNumber": "7202839243",
                    "ContactRole": {
                        "@desc": "SentBy",
                        "@id": "4"
                    },
                    "ContactType": {
                        "@desc": "Person",
                        "@id": "3"
                    },
                    "FromType": "Web"
                }
            ],
            "CreateDate": "2014-01-14T06:52:53-07:00",
            "Description": "testing with contact id",
            "LastUpdateDate": "2014-01-14T06:52:53-07:00",
            "Version": "1",
            "MessageDate": "2014-01-14T06:52:53-07:00",
            "MessageDirection": "O",
            "ResponseStatus": "success",
            "responseStatusCode": "202",
            "Size": "23.0",
            "SizeUnit": "CHAR",
            "Subject": "test with ids"
        },
        {
            "@id": "3580092",
            "@type": "SMS",
            "ContactReference": [
                {
                    "ContactId": "-1",
                    "ContactNumber": "7202839243",
                    "ContactRole": {
                        "@desc": "SentTo",
                        "@id": "3"
                    },
                    "ContactType": {
                        "@desc": "Person",
                        "@id": "3"
                    }
                },
                {
                    "ContactId": "-1",
                    "ContactNumber": "7202839243",
                    "ContactRole": {
                        "@desc": "SentBy",
                        "@id": "4"
                    },
                    "ContactType": {
                        "@desc": "Person",
                        "@id": "3"
                    },
                    "FromType": "Web"
                }
            ],
            "CreateDate": "2014-01-13T14:40:10-07:00",
            "Description": "testing",
            "LastUpdateDate": "2014-01-13T14:40:10-07:00",
            "Version": "1",
            "MessageDate": "2014-01-13T14:40:10-07:00",
            "MessageDirection": "O",
            "ResponseStatus": "success",
            "responseStatusCode": "202",
            "Size": "7.0",
            "SizeUnit": "CHAR",
            "Subject": "Another test"
        },
        {
            "@id": "3580091",
            "@type": "SMS",
            "ContactReference": [
                {
                    "ContactId": "-1",
                    "ContactNumber": "3035551212",
                    "ContactRole": {
                        "@desc": "SentBy",
                        "@id": "4"
                    },
                    "ContactType": {
                        "@desc": "Person",
                        "@id": "3"
                    },
                    "FromType": "Web"
                },
                {
                    "ContactId": "-1",
                    "ContactNumber": "7202839243",
                    "ContactRole": {
                        "@desc": "SentTo",
                        "@id": "3"
                    },
                    "ContactType": {
                        "@desc": "Person",
                        "@id": "3"
                    }
                }
            ],
            "CreateDate": "2014-01-13T14:34:41-07:00",
            "Description": "testing a new message artifact",
            "LastUpdateDate": "2014-01-13T14:34:41-07:00",
            "Version": "1",
            "MessageDate": "2014-01-13T14:34:41-07:00",
            "ResponseStatus": "success",
            "responseStatusCode": "202",
            "Subject": "Hello from test"
        },
        {
            "@id": "3580090",
            "@type": "SMS",
            "ContactReference": [
                {
                    "ContactId": "-1",
                    "ContactNumber": "7208888519",
                    "ContactRole": {
                        "@desc": "SentBy",
                        "@id": "4"
                    },
                    "ContactType": {
                        "@desc": "Person",
                        "@id": "3"
                    },
                    "FromType": "Web"
                },
                {
                    "ContactId": "-1",
                    "ContactNumber": "7202839243",
                    "ContactRole": {
                        "@desc": "SentTo",
                        "@id": "3"
                    },
                    "ContactType": {
                        "@desc": "Person",
                        "@id": "3"
                    }
                }
            ],
            "CreateDate": "2014-01-13T13:20:30-07:00",
            "Description": "This is a test message.",
            "LastUpdateDate": "2014-01-13T13:20:30-07:00",
            "Version": "1",
            "MessageDate": "2014-01-13T13:20:30-07:00",
            "ResponseStatus": "success",
            "responseStatusCode": "202",
            "Subject": "Hello from Bollywood"
        },
        {
            "@id": "3580089",
            "@type": "SMS",
            "ContactReference": [
                {
                    "ContactId": "-1",
                    "ContactNumber": "3038814679",
                    "ContactRole": {
                        "@desc": "SentBy",
                        "@id": "4"
                    },
                    "ContactType": {
                        "@desc": "Person",
                        "@id": "3"
                    },
                    "FromType": "Web"
                },
                {
                    "ContactId": "-1",
                    "ContactNumber": "7202839243",
                    "ContactRole": {
                        "@desc": "SentTo",
                        "@id": "3"
                    },
                    "ContactType": {
                        "@desc": "Person",
                        "@id": "3"
                    }
                }
            ],
            "CreateDate": "2014-01-13T13:11:10-07:00",
            "Description": "From Mike",
            "LastUpdateDate": "2014-01-13T13:11:10-07:00",
            "Version": "1",
            "MessageDate": "2014-01-13T13:11:10-07:00",
            "ResponseStatus": "success",
            "responseStatusCode": "202",
            "Subject": "Hello!"
        },
        {
            "@id": "3580087",
            "@type": "SMS",
            "ContactReference": [
                {
                    "ContactId": "-1",
                    "ContactNumber": "to@test.test",
                    "ContactRole": {
                        "@desc": "SentTo",
                        "@id": "3"
                    },
                    "ContactType": {
                        "@desc": "Person",
                        "@id": "3"
                    }
                },
                {
                    "ContactId": "-1",
                    "ContactNumber": "test@from.email",
                    "ContactRole": {
                        "@desc": "SentBy",
                        "@id": "4"
                    },
                    "ContactType": {
                        "@desc": "Person",
                        "@id": "3"
                    },
                    "FromType": "Web"
                }
            ],
            "CreateDate": "2014-01-13T11:39:32-07:00",
            "Description": "Testing message",
            "LastUpdateDate": "2014-01-13T11:39:32-07:00",
            "Version": "1",
            "MessageDate": "2014-01-13T11:39:32-07:00",
            "ResponseStatus": "success",
            "responseStatusCode": "202",
            "Subject": "test"
        },
        {
            "@id": "3580086",
            "@type": "SMS",
            "ContactReference": [
                {
                    "ContactId": "-1",
                    "ContactNumber": "test@from.email",
                    "ContactRole": {
                        "@desc": "SentBy",
                        "@id": "4"
                    },
                    "ContactType": {
                        "@desc": "Person",
                        "@id": "3"
                    },
                    "FromType": "Web"
                },
                {
                    "ContactId": "-1",
                    "ContactNumber": "to@test.test",
                    "ContactRole": {
                        "@desc": "SentTo",
                        "@id": "3"
                    },
                    "ContactType": {
                        "@desc": "Person",
                        "@id": "3"
                    }
                }
            ],
            "CreateDate": "2014-01-13T11:39:19-07:00",
            "Description": "Testing message",
            "LastUpdateDate": "2014-01-13T11:39:19-07:00",
            "Version": "1",
            "MessageDate": "2014-01-13T11:39:19-07:00",
            "ResponseStatus": "success",
            "responseStatusCode": "202",
            "Subject": "test"
        },
        {
            "@id": "3580085",
            "@type": "SMS",
            "ContactReference": [
                {
                    "ContactId": "-1",
                    "ContactNumber": "test@from.email",
                    "ContactRole": {
                        "@desc": "SentBy",
                        "@id": "4"
                    },
                    "ContactType": {
                        "@desc": "Person",
                        "@id": "3"
                    },
                    "FromType": "Web"
                },
                {
                    "ContactId": "-1",
                    "ContactNumber": "to@test.test",
                    "ContactRole": {
                        "@desc": "SentTo",
                        "@id": "3"
                    },
                    "ContactType": {
                        "@desc": "Person",
                        "@id": "3"
                    }
                }
            ],
            "CreateDate": "2014-01-13T11:39:02-07:00",
            "Description": "Testing message",
            "LastUpdateDate": "2014-01-13T11:39:02-07:00",
            "Version": "1",
            "MessageDate": "2014-01-13T11:39:02-07:00",
            "ResponseStatus": "success",
            "responseStatusCode": "202",
            "Subject": "test"
        },
        {
            "@id": "3580084",
            "@type": "SMS",
            "ContactReference": [
                {
                    "ContactId": "-1",
                    "ContactNumber": "test@from.email",
                    "ContactRole": {
                        "@desc": "SentBy",
                        "@id": "4"
                    },
                    "ContactType": {
                        "@desc": "Person",
                        "@id": "3"
                    },
                    "FromType": "Web"
                },
                {
                    "ContactId": "-1",
                    "ContactNumber": "to@test.test",
                    "ContactRole": {
                        "@desc": "SentTo",
                        "@id": "3"
                    },
                    "ContactType": {
                        "@desc": "Person",
                        "@id": "3"
                    }
                }
            ],
            "CreateDate": "2014-01-13T11:33:37-07:00",
            "Description": "Testing message",
            "LastUpdateDate": "2014-01-13T11:33:37-07:00",
            "Version": "1",
            "MessageDate": "2014-01-13T11:33:37-07:00",
            "ResponseStatus": "success",
            "responseStatusCode": "202",
            "Subject": "test"
        },
        {
            "@id": "3580083",
            "@type": "SMS",
            "ContactReference": [
                {
                    "ContactId": "-1",
                    "ContactNumber": "7202839243",
                    "ContactRole": {
                        "@desc": "SentBy",
                        "@id": "4"
                    },
                    "ContactType": {
                        "@desc": "Person",
                        "@id": "3"
                    },
                    "FromType": "Web"
                },
                {
                    "ContactId": "-1",
                    "ContactNumber": "to@test.test",
                    "ContactRole": {
                        "@desc": "SentTo",
                        "@id": "3"
                    },
                    "ContactType": {
                        "@desc": "Person",
                        "@id": "3"
                    }
                }
            ],
            "CreateDate": "2014-01-13T11:33:18-07:00",
            "Description": "Testing message",
            "LastUpdateDate": "2014-01-13T11:33:18-07:00",
            "Version": "1",
            "MessageDate": "2014-01-13T11:33:18-07:00",
            "ResponseStatus": "success",
            "responseStatusCode": "202",
            "Subject": "test"
        },
        {
            "@id": "3580082",
            "@type": "SMS",
            "ContactReference": {
                "ContactId": "-1",
                "ContactNumber": "to@test.test",
                "ContactRole": {
                    "@desc": "SentTo",
                    "@id": "3"
                },
                "ContactType": {
                    "@desc": "Person",
                    "@id": "3"
                }
            },
            "CreateDate": "2014-01-13T11:27:36-07:00",
            "Description": "Make Activity",
            "LastUpdateDate": "2014-01-13T11:27:36-07:00",
            "Version": "1",
            "MessageDate": "2014-01-13T11:27:36-07:00",
            "ResponseStatus": "success",
            "responseStatusCode": "202",
            "Subject": "Test"
        },
        {
            "@id": "3580081",
            "@type": "SMS",
            "ContactReference": {
                "ContactId": "-1",
                "ContactNumber": "to@test.test",
                "ContactRole": {
                    "@desc": "SentTo",
                    "@id": "3"
                },
                "ContactType": {
                    "@desc": "Person",
                    "@id": "3"
                }
            },
            "CreateDate": "2014-01-13T11:27:08-07:00",
            "Description": "Make Activity",
            "LastUpdateDate": "2014-01-13T11:27:08-07:00",
            "Version": "1",
            "MessageDate": "2014-01-13T11:27:08-07:00",
            "ResponseStatus": "success",
            "responseStatusCode": "202",
            "Subject": "Test"
        },
        {
            "@id": "3580072",
            "@type": "SMS",
            "ContactReference": [
                {
                    "ContactId": "-1",
                    "ContactNumber": "somebody@email.test",
                    "ContactRole": {
                        "@desc": "SentTo",
                        "@id": "3"
                    },
                    "ContactType": {
                        "@desc": "Person",
                        "@id": "3"
                    }
                },
                {
                    "ContactId": "-1",
                    "ContactNumber": "7202839243",
                    "ContactRole": {
                        "@desc": "SentBy",
                        "@id": "4"
                    },
                    "ContactType": {
                        "@desc": "Person",
                        "@id": "3"
                    },
                    "FromType": "Web"
                }
            ],
            "CreateDate": "2014-01-13T10:31:43-07:00",
            "Description": "Sent to somebody@email.test",
            "LastUpdateDate": "2014-01-13T10:31:43-07:00",
            "Version": "1",
            "MessageDate": "2014-01-13T10:31:43-07:00",
            "MessageDirection": "O",
            "ResponseStatus": "success",
            "responseStatusCode": "202",
            "Size": "27.0",
            "SizeUnit": "CHAR",
            "Subject": "to email"
        },
        {
            "@id": "3580067",
            "@type": "SMS",
            "ContactReference": [
                {
                    "ContactId": "-1",
                    "ContactNumber": "7202839243",
                    "ContactRole": {
                        "@desc": "SentTo",
                        "@id": "3"
                    },
                    "ContactType": {
                        "@desc": "Person",
                        "@id": "3"
                    }
                },
                {
                    "ContactId": "-1",
                    "ContactNumber": "7202839243",
                    "ContactRole": {
                        "@desc": "SentBy",
                        "@id": "4"
                    },
                    "ContactType": {
                        "@desc": "Person",
                        "@id": "3"
                    },
                    "FromType": "Web"
                }
            ],
            "CreateDate": "2014-01-13T06:03:07-07:00",
            "Description": "Hello! Testing message",
            "LastUpdateDate": "2014-01-13T06:03:07-07:00",
            "Version": "1",
            "MessageDate": "2014-01-13T06:03:07-07:00",
            "MessageDirection": "O",
            "ResponseStatus": "success",
            "responseStatusCode": "202",
            "Size": "22.0",
            "SizeUnit": "CHAR",
            "Subject": "Hello"
        },
        {
            "@id": "3580066",
            "@type": "SMS",
            "ContactReference": [
                {
                    "ContactId": "-1",
                    "ContactNumber": "7202839243",
                    "ContactRole": {
                        "@desc": "SentBy",
                        "@id": "4"
                    },
                    "ContactType": {
                        "@desc": "Person",
                        "@id": "3"
                    },
                    "FromType": "Web"
                },
                {
                    "ContactId": "3580549",
                    "ContactNumber": "test@email.test",
                    "ContactRole": {
                        "@desc": "SentTo",
                        "@id": "3"
                    },
                    "ContactType": {
                        "@desc": "Person",
                        "@id": "3"
                    }
                }
            ],
            "CreateDate": "2014-01-13T05:05:03-07:00",
            "Description": "testing 1404",
            "LastUpdateDate": "2014-01-13T05:05:03-07:00",
            "Version": "1",
            "MessageDate": "2014-01-13T05:05:03-07:00",
            "MessageDirection": "O",
            "ResponseStatus": "success",
            "responseStatusCode": "202",
            "Size": "12.0",
            "SizeUnit": "CHAR",
            "Subject": "Test Subject 1404"
        },
        {
            "@id": "3580065",
            "@type": "SMS",
            "ContactReference": [
                {
                    "ContactId": "7202839243",
                    "ContactNumber": "7202839243",
                    "ContactRole": {
                        "@desc": "SentBy",
                        "@id": "4"
                    },
                    "ContactType": {
                        "@desc": "Person",
                        "@id": "3"
                    },
                    "FromType": "Web"
                },
                {
                    "ContactId": "7202839243",
                    "ContactNumber": "dmitriy.cherkashin@gmail.com",
                    "ContactRole": {
                        "@desc": "SentTo",
                        "@id": "3"
                    },
                    "ContactType": {
                        "@desc": "Person",
                        "@id": "3"
                    }
                }
            ],
            "CreateDate": "2014-01-11T16:21:17-07:00",
            "Description": "Testing message",
            "LastUpdateDate": "2014-01-11T16:21:17-07:00",
            "Version": "1",
            "MessageDate": "2014-01-11T16:21:17-07:00",
            "MessageDirection": "O",
            "ResponseStatus": "success",
            "responseStatusCode": "202",
            "Size": "15.0",
            "SizeUnit": "CHAR",
            "Subject": "test"
        },
        {
            "@id": "3580064",
            "@type": "SMS",
            "ContactReference": [
                {
                    "ContactId": "7202839243",
                    "ContactNumber": "7202839243",
                    "ContactRole": {
                        "@desc": "SentBy",
                        "@id": "4"
                    },
                    "ContactType": {
                        "@desc": "Person",
                        "@id": "3"
                    },
                    "FromType": "Web"
                },
                {
                    "ContactId": "7202839243",
                    "ContactNumber": "7202839243",
                    "ContactRole": {
                        "@desc": "SentTo",
                        "@id": "3"
                    },
                    "ContactType": {
                        "@desc": "Person",
                        "@id": "3"
                    }
                }
            ],
            "CreateDate": "2014-01-11T16:08:06-07:00",
            "Description": "Testing message",
            "LastUpdateDate": "2014-01-11T16:08:06-07:00",
            "Version": "1",
            "MessageDate": "2014-01-11T16:08:06-07:00",
            "MessageDirection": "O",
            "ResponseStatus": "success",
            "responseStatusCode": "202",
            "Size": "15.0",
            "SizeUnit": "CHAR",
            "Subject": "test"
        },
        {
            "@id": "3580063",
            "@type": "SMS",
            "ContactReference": [
                {
                    "ContactId": "-1",
                    "ContactNumber": "7202839243",
                    "ContactRole": {
                        "@desc": "SentBy",
                        "@id": "4"
                    },
                    "ContactType": {
                        "@desc": "Person",
                        "@id": "3"
                    },
                    "FromType": "Web"
                },
                {
                    "ContactId": "3580549",
                    "ContactNumber": "test@email.test",
                    "ContactRole": {
                        "@desc": "SentTo",
                        "@id": "3"
                    },
                    "ContactType": {
                        "@desc": "Person",
                        "@id": "3"
                    }
                }
            ],
            "CreateDate": "2014-01-11T13:31:27-07:00",
            "Description": "Test Message",
            "LastUpdateDate": "2014-01-11T13:31:27-07:00",
            "Version": "1",
            "MessageDate": "2014-01-11T13:31:27-07:00",
            "MessageDirection": "O",
            "ResponseStatus": "success",
            "responseStatusCode": "202",
            "Size": "12.0",
            "SizeUnit": "CHAR",
            "Subject": "test Subject"
        },
        {
            "@id": "3580062",
            "@type": "SMS",
            "ContactReference": [
                {
                    "ContactId": "-1",
                    "ContactNumber": "7202839243",
                    "ContactRole": {
                        "@desc": "SentBy",
                        "@id": "4"
                    },
                    "ContactType": {
                        "@desc": "Person",
                        "@id": "3"
                    },
                    "FromType": "Web"
                },
                {
                    "ContactId": "3580549",
                    "ContactNumber": "test@email.test",
                    "ContactRole": {
                        "@desc": "SentTo",
                        "@id": "3"
                    },
                    "ContactType": {
                        "@desc": "Person",
                        "@id": "3"
                    }
                }
            ],
            "CreateDate": "2014-01-10T11:20:08-07:00",
            "Description": "message testing",
            "LastUpdateDate": "2014-01-10T11:20:09-07:00",
            "Version": "1",
            "MessageDate": "2014-01-10T11:20:09-07:00",
            "MessageDirection": "O",
            "ResponseStatus": "success",
            "responseStatusCode": "202",
            "Size": "15.0",
            "SizeUnit": "CHAR",
            "Subject": "Subject test"
        },
        {
            "@id": "3580078",
            "@type": "SMS",
            "ContactReference": {
                "ContactId": "3581256",
                "ContactName": "Uncle Scott",
                "ContactRole": {
                    "@desc": "Tagged",
                    "@id": "2"
                },
                "ContactType": {
                    "@desc": "Person",
                    "@id": "3"
                }
            },
            "CreateDate": "2013-01-22T14:02:30-07:00",
            "Description": "Make Activity",
            "LastUpdateDate": "2013-01-22T14:02:30-07:00",
            "Version": "1",
            "MessageDate": "2013-01-22T14:02:30-07:00",
            "ResponseStatus": "success",
            "responseStatusCode": "202"
        },
        {
            "@id": "3580075",
            "@type": "SMS",
            "ContactReference": {
                "ContactId": "3581256",
                "ContactName": "Uncle Scott",
                "ContactRole": {
                    "@desc": "Tagged",
                    "@id": "2"
                },
                "ContactType": {
                    "@desc": "Person",
                    "@id": "3"
                }
            },
            "CreateDate": "2013-01-22T14:02:30-07:00",
            "Description": "Make Activity",
            "LastUpdateDate": "2013-01-22T14:02:30-07:00",
            "Version": "1",
            "MessageDate": "2013-01-22T14:02:30-07:00",
            "ResponseStatus": "success",
            "responseStatusCode": "202"
        },
        {
            "@id": "3580076",
            "@type": "SMS",
            "ContactReference": {
                "ContactId": "3581256",
                "ContactName": "Uncle Scott",
                "ContactRole": {
                    "@desc": "Tagged",
                    "@id": "2"
                },
                "ContactType": {
                    "@desc": "Person",
                    "@id": "3"
                }
            },
            "CreateDate": "2013-01-22T14:02:30-07:00",
            "Description": "Make Activity",
            "LastUpdateDate": "2013-01-22T14:02:30-07:00",
            "Version": "1",
            "MessageDate": "2013-01-22T14:02:30-07:00",
            "ResponseStatus": "success",
            "responseStatusCode": "202"
        },
        {
            "@id": "3580077",
            "@type": "SMS",
            "ContactReference": {
                "ContactId": "3581256",
                "ContactName": "Uncle Scott",
                "ContactRole": {
                    "@desc": "Tagged",
                    "@id": "2"
                },
                "ContactType": {
                    "@desc": "Person",
                    "@id": "3"
                }
            },
            "CreateDate": "2013-01-22T14:02:30-07:00",
            "Description": "Make Activity",
            "LastUpdateDate": "2013-01-22T14:02:30-07:00",
            "Version": "1",
            "MessageDate": "2013-01-22T14:02:30-07:00",
            "ResponseStatus": "success",
            "responseStatusCode": "202"
        },
        {
            "@id": "3580080",
            "@type": "SMS",
            "ContactReference": {
                "ContactId": "3581256",
                "ContactName": "Uncle Scott",
                "ContactRole": {
                    "@desc": "Tagged",
                    "@id": "2"
                },
                "ContactType": {
                    "@desc": "Person",
                    "@id": "3"
                }
            },
            "CreateDate": "2013-01-22T14:02:30-07:00",
            "Description": "Make Activity",
            "LastUpdateDate": "2013-01-22T14:02:30-07:00",
            "Version": "1",
            "MessageDate": "2013-01-22T14:02:30-07:00",
            "ResponseStatus": "success",
            "responseStatusCode": "202"
        }
    ]
}, "PublicUserId": "7202839243", "Status": {
    "Error": {
        "ErrorCode": "0",
        "ErrorMessage": "Success"
    }
}}